大二下/數位系統技術/UART/simulation/qsim/UART.msim.vcd
$comment
	File created using the following command:
		vcd file UART.msim.vcd -direction
$end
$date
	Wed May 29 09:52:31 2024
$end
$version
	ModelSim Version 2020.1
$end
$timescale
	1ps
$end

$scope module UART_TX_vlg_vec_tst $end
$var reg 8 ! i_TX_Byte [7:0] $end
$var reg 1 " i_clk $end
$var reg 1 # i_rst $end
$var wire 1 $ o_TX_Bit $end

$scope module i1 $end
$var wire 1 % gnd $end
$var wire 1 & vcc $end
$var wire 1 ' unknown $end
$var tri1 1 ( devclrn $end
$var tri1 1 ) devpor $end
$var tri1 1 * devoe $end
$var wire 1 + o_TX_Bit~output_o $end
$var wire 1 , i_clk~input_o $end
$var wire 1 - r_SM_Main.TX_START_ST~0_combout $end
$var wire 1 . i_rst~input_o $end
$var wire 1 / r_SM_Main.TX_START_ST~q $end
$var wire 1 0 Selector2~0_combout $end
$var wire 1 1 Selector1~0_combout $end
$var wire 1 2 Selector1~1_combout $end
$var wire 1 3 LessThan0~0_combout $end
$var wire 1 4 Selector5~0_combout $end
$var wire 1 5 r_SM_Main.TX_DATA_ST~q $end
$var wire 1 6 Selector0~0_combout $end
$var wire 1 7 r_SM_Main~10_combout $end
$var wire 1 8 r_SM_Main.TX_STOP_ST~q $end
$var wire 1 9 i_TX_Byte[2]~input_o $end
$var wire 1 : i_TX_Byte[1]~input_o $end
$var wire 1 ; i_TX_Byte[0]~input_o $end
$var wire 1 < Mux0~0_combout $end
$var wire 1 = i_TX_Byte[3]~input_o $end
$var wire 1 > Mux0~1_combout $end
$var wire 1 ? Selector3~0_combout $end
$var wire 1 @ i_TX_Byte[6]~input_o $end
$var wire 1 A i_TX_Byte[5]~input_o $end
$var wire 1 B i_TX_Byte[4]~input_o $end
$var wire 1 C Mux0~2_combout $end
$var wire 1 D i_TX_Byte[7]~input_o $end
$var wire 1 E Mux0~3_combout $end
$var wire 1 F Selector3~1_combout $end
$var wire 1 G r_TX_Bit~q $end
$var wire 1 H r_Byte_Idx [2] $end
$var wire 1 I r_Byte_Idx [1] $end
$var wire 1 J r_Byte_Idx [0] $end
$upscope $end
$upscope $end
$enddefinitions $end
#0
$dumpvars
b1001110 !
0"
1#
1$
0%
1&
x'
1(
1)
1*
1+
0,
1-
1.
0/
00
01
02
03
14
05
06
07
08
19
1:
0;
0<
1=
0>
0?
1@
0A
0B
0C
0D
0E
1F
0G
0J
0I
0H
$end
#5000
1"
1,
#10000
0"
0,
#15000
1"
1,
#20000
0#
0"
0.
0,
#25000
1"
1,
1G
15
1/
0+
11
0$
10
#30000
0"
0,
#35000
1"
1,
1J
1<
01
12
00
1>
1?
0F
#40000
0"
0,
#45000
1"
1,
0G
1I
0J
1+
1E
0<
11
1$
02
10
12
#50000
0"
0,
#55000
1"
1,
1J
1C
1<
13
01
00
0E
16
02
#60000
0"
0,
#65000
1"
1,
1H
0I
0J
0?
11
1E
0C
0<
03
04
10
0E
0>
14
1F
#70000
0"
0,
#75000
1"
1,
1G
1J
0+
1<
0$
12
00
1>
#80000
0"
0,
#85000
1"
1,
1I
0J
1E
0<
10
0F
#90000
0"
0,
#95000
1"
1,
0G
1J
1+
1C
1<
13
1$
17
00
0E
04
10
1F
#100000
0"
0,
#105000
1"
1,
1G
18
05
0+
1?
0$
0-
07
0F
#110000
0"
0,
#115000
1"
1,
0G
08
0/
1+
0?
01
1$
00
1-
06
14
1F
02
#120000
0"
0,
#125000
1"
1,
1G
0H
15
0I
0J
1/
0+
1?
11
1E
0C
0<
03
0$
16
10
0E
0>
0F
06
0?
1F
#130000
b1101110 !
b1111110 !
b1111010 !
b1111011 !
0"
1A
1B
09
1;
0,
1C
1<
1E
1>
1?
0F
#135000
1"
1,
0G
1J
1+
01
1$
12
00
#140000
0"
0,
#145000
1"
1,
1I
0J
0E
0C
0<
11
02
10
1E
0>
12
0?
1F
#150000
0"
0,
#155000
1"
1,
1G
1J
0+
1C
1<
13
01
0$
00
0E
1>
16
02
1?
0F
#160000
0"
0,
#165000
1"
1,
0G
1H
0I
0J
1+
0?
11
1E
03
1$
04
10
14
#170000
0"
0,
#175000
1"
1,
1J
12
00
#180000
0"
0,
#185000
1"
1,
1I
0J
0E
0C
0<
10
1E
0>
1F
0F
#190000
0"
0,
#195000
1"
1,
1J
1C
1<
13
17
00
0E
1>
04
10
1F
#200000
0"
0,
#205000
1"
1,
1G
18
05
0+
1?
0$
0-
07
0F
#210000
0"
0,
#215000
1"
1,
0G
08
0/
1+
0?
01
1$
00
1-
06
14
1F
02
#220000
0"
0,
#225000
1"
1,
1G
0H
15
0I
0J
1/
0+
1?
11
1E
03
0$
16
10
0F
06
#230000
0"
0,
#235000
1"
1,
0G
1J
1+
01
1$
12
00
#240000
0"
0,
#245000
1"
1,
1I
0J
0E
0C
0<
11
02
10
1E
0>
12
0?
1F
#250000
0"
0,
#255000
1"
1,
1G
1J
0+
1C
1<
13
01
0$
00
0E
1>
16
02
1?
0F
#260000
0"
0,
#265000
1"
1,
0G
1H
0I
0J
1+
0?
11
1E
03
1$
04
10
14
#270000
0"
0,
#275000
1"
1,
1J
12
00
#280000
0"
0,
#285000
1"
1,
1I
0J
0E
0C
0<
10
1E
0>
1F
0F
#290000
0"
0,
#295000
1"
1,
1J
1C
1<
13
17
00
0E
1>
04
10
1F
