大二下/數位系統技術/final_practice3/simulation/qsim/final_practice3.msim.vcd
$comment
	File created using the following command:
		vcd file final_practice3.msim.vcd -direction
$end
$date
	Wed Jun 12 09:22:51 2024
$end
$version
	ModelSim Version 2020.1
$end
$timescale
	1ps
$end

$scope module final_practice3_vlg_vec_tst $end
$var reg 1 ! clk $end
$var reg 4 " kc_sel [3:0] $end
$var reg 1 # rst $end
$var wire 1 $ key_buf_code [23] $end
$var wire 1 % key_buf_code [22] $end
$var wire 1 & key_buf_code [21] $end
$var wire 1 ' key_buf_code [20] $end
$var wire 1 ( key_buf_code [19] $end
$var wire 1 ) key_buf_code [18] $end
$var wire 1 * key_buf_code [17] $end
$var wire 1 + key_buf_code [16] $end
$var wire 1 , key_buf_code [15] $end
$var wire 1 - key_buf_code [14] $end
$var wire 1 . key_buf_code [13] $end
$var wire 1 / key_buf_code [12] $end
$var wire 1 0 key_buf_code [11] $end
$var wire 1 1 key_buf_code [10] $end
$var wire 1 2 key_buf_code [9] $end
$var wire 1 3 key_buf_code [8] $end
$var wire 1 4 key_buf_code [7] $end
$var wire 1 5 key_buf_code [6] $end
$var wire 1 6 key_buf_code [5] $end
$var wire 1 7 key_buf_code [4] $end
$var wire 1 8 key_buf_code [3] $end
$var wire 1 9 key_buf_code [2] $end
$var wire 1 : key_buf_code [1] $end
$var wire 1 ; key_buf_code [0] $end
$var wire 1 < kr_sel [3] $end
$var wire 1 = kr_sel [2] $end
$var wire 1 > kr_sel [1] $end
$var wire 1 ? kr_sel [0] $end
$var wire 1 @ scan_code [3] $end
$var wire 1 A scan_code [2] $end
$var wire 1 B scan_code [1] $end
$var wire 1 C scan_code [0] $end
$var wire 1 D sum [20] $end
$var wire 1 E sum [19] $end
$var wire 1 F sum [18] $end
$var wire 1 G sum [17] $end
$var wire 1 H sum [16] $end
$var wire 1 I sum [15] $end
$var wire 1 J sum [14] $end
$var wire 1 K sum [13] $end
$var wire 1 L sum [12] $end
$var wire 1 M sum [11] $end
$var wire 1 N sum [10] $end
$var wire 1 O sum [9] $end
$var wire 1 P sum [8] $end
$var wire 1 Q sum [7] $end
$var wire 1 R sum [6] $end
$var wire 1 S sum [5] $end
$var wire 1 T sum [4] $end
$var wire 1 U sum [3] $end
$var wire 1 V sum [2] $end
$var wire 1 W sum [1] $end
$var wire 1 X sum [0] $end

$scope module i1 $end
$var wire 1 Y gnd $end
$var wire 1 Z vcc $end
$var wire 1 [ unknown $end
$var tri1 1 \ devclrn $end
$var tri1 1 ] devpor $end
$var tri1 1 ^ devoe $end
$var wire 1 _ kr_sel[0]~output_o $end
$var wire 1 ` kr_sel[1]~output_o $end
$var wire 1 a kr_sel[2]~output_o $end
$var wire 1 b kr_sel[3]~output_o $end
$var wire 1 c scan_code[0]~output_o $end
$var wire 1 d scan_code[1]~output_o $end
$var wire 1 e scan_code[2]~output_o $end
$var wire 1 f scan_code[3]~output_o $end
$var wire 1 g key_buf_code[0]~output_o $end
$var wire 1 h key_buf_code[1]~output_o $end
$var wire 1 i key_buf_code[2]~output_o $end
$var wire 1 j key_buf_code[3]~output_o $end
$var wire 1 k key_buf_code[4]~output_o $end
$var wire 1 l key_buf_code[5]~output_o $end
$var wire 1 m key_buf_code[6]~output_o $end
$var wire 1 n key_buf_code[7]~output_o $end
$var wire 1 o key_buf_code[8]~output_o $end
$var wire 1 p key_buf_code[9]~output_o $end
$var wire 1 q key_buf_code[10]~output_o $end
$var wire 1 r key_buf_code[11]~output_o $end
$var wire 1 s key_buf_code[12]~output_o $end
$var wire 1 t key_buf_code[13]~output_o $end
$var wire 1 u key_buf_code[14]~output_o $end
$var wire 1 v key_buf_code[15]~output_o $end
$var wire 1 w key_buf_code[16]~output_o $end
$var wire 1 x key_buf_code[17]~output_o $end
$var wire 1 y key_buf_code[18]~output_o $end
$var wire 1 z key_buf_code[19]~output_o $end
$var wire 1 { key_buf_code[20]~output_o $end
$var wire 1 | key_buf_code[21]~output_o $end
$var wire 1 } key_buf_code[22]~output_o $end
$var wire 1 ~ key_buf_code[23]~output_o $end
$var wire 1 !! sum[0]~output_o $end
$var wire 1 "! sum[1]~output_o $end
$var wire 1 #! sum[2]~output_o $end
$var wire 1 $! sum[3]~output_o $end
$var wire 1 %! sum[4]~output_o $end
$var wire 1 &! sum[5]~output_o $end
$var wire 1 '! sum[6]~output_o $end
$var wire 1 (! sum[7]~output_o $end
$var wire 1 )! sum[8]~output_o $end
$var wire 1 *! sum[9]~output_o $end
$var wire 1 +! sum[10]~output_o $end
$var wire 1 ,! sum[11]~output_o $end
$var wire 1 -! sum[12]~output_o $end
$var wire 1 .! sum[13]~output_o $end
$var wire 1 /! sum[14]~output_o $end
$var wire 1 0! sum[15]~output_o $end
$var wire 1 1! sum[16]~output_o $end
$var wire 1 2! sum[17]~output_o $end
$var wire 1 3! sum[18]~output_o $end
$var wire 1 4! sum[19]~output_o $end
$var wire 1 5! sum[20]~output_o $end
$var wire 1 6! clk~input_o $end
$var wire 1 7! m1|kr_out[1]~1_combout $end
$var wire 1 8! rst~input_o $end
$var wire 1 9! m1|kr_out[0]~0_combout $end
$var wire 1 :! kc_sel[0]~input_o $end
$var wire 1 ;! kc_sel[1]~input_o $end
$var wire 1 <! kc_sel[2]~input_o $end
$var wire 1 =! kc_sel[3]~input_o $end
$var wire 1 >! m2|scan_code~0_combout $end
$var wire 1 ?! m2|Mux4~0_combout $end
$var wire 1 @! m2|Mux4~1_combout $end
$var wire 1 A! m2|scan_code~1_combout $end
$var wire 1 B! m2|Mux3~0_combout $end
$var wire 1 C! m2|WideOr0~0_combout $end
$var wire 1 D! m2|Mux2~0_combout $end
$var wire 1 E! m2|Mux2~1_combout $end
$var wire 1 F! m2|Mux1~0_combout $end
$var wire 1 G! m2|Mux1~1_combout $end
$var wire 1 H! m3|LessThan1~0_combout $end
$var wire 1 I! m3|sum[0]~25_combout $end
$var wire 1 J! m3|sum[0]~14_combout $end
$var wire 1 K! m3|sum[0]~13_combout $end
$var wire 1 L! m3|sum[0]~16_combout $end
$var wire 1 M! m3|sum[0]~15 $end
$var wire 1 N! m3|sum[1]~17_combout $end
$var wire 1 O! m3|sum[1]~18 $end
$var wire 1 P! m3|sum[2]~19_combout $end
$var wire 1 Q! m3|sum[2]~20 $end
$var wire 1 R! m3|sum[3]~21_combout $end
$var wire 1 S! m3|sum[3]~22 $end
$var wire 1 T! m3|sum[4]~23_combout $end
$var wire 1 U! m3|sum [20] $end
$var wire 1 V! m3|sum [19] $end
$var wire 1 W! m3|sum [18] $end
$var wire 1 X! m3|sum [17] $end
$var wire 1 Y! m3|sum [16] $end
$var wire 1 Z! m3|sum [15] $end
$var wire 1 [! m3|sum [14] $end
$var wire 1 \! m3|sum [13] $end
$var wire 1 ]! m3|sum [12] $end
$var wire 1 ^! m3|sum [11] $end
$var wire 1 _! m3|sum [10] $end
$var wire 1 `! m3|sum [9] $end
$var wire 1 a! m3|sum [8] $end
$var wire 1 b! m3|sum [7] $end
$var wire 1 c! m3|sum [6] $end
$var wire 1 d! m3|sum [5] $end
$var wire 1 e! m3|sum [4] $end
$var wire 1 f! m3|sum [3] $end
$var wire 1 g! m3|sum [2] $end
$var wire 1 h! m3|sum [1] $end
$var wire 1 i! m3|sum [0] $end
$var wire 1 j! m1|kr_out [3] $end
$var wire 1 k! m1|kr_out [2] $end
$var wire 1 l! m1|kr_out [1] $end
$var wire 1 m! m1|kr_out [0] $end
$var wire 1 n! m3|key_buf_code [23] $end
$var wire 1 o! m3|key_buf_code [22] $end
$var wire 1 p! m3|key_buf_code [21] $end
$var wire 1 q! m3|key_buf_code [20] $end
$var wire 1 r! m3|key_buf_code [19] $end
$var wire 1 s! m3|key_buf_code [18] $end
$var wire 1 t! m3|key_buf_code [17] $end
$var wire 1 u! m3|key_buf_code [16] $end
$var wire 1 v! m3|key_buf_code [15] $end
$var wire 1 w! m3|key_buf_code [14] $end
$var wire 1 x! m3|key_buf_code [13] $end
$var wire 1 y! m3|key_buf_code [12] $end
$var wire 1 z! m3|key_buf_code [11] $end
$var wire 1 {! m3|key_buf_code [10] $end
$var wire 1 |! m3|key_buf_code [9] $end
$var wire 1 }! m3|key_buf_code [8] $end
$var wire 1 ~! m3|key_buf_code [7] $end
$var wire 1 !" m3|key_buf_code [6] $end
$var wire 1 "" m3|key_buf_code [5] $end
$var wire 1 #" m3|key_buf_code [4] $end
$var wire 1 $" m3|key_buf_code [3] $end
$var wire 1 %" m3|key_buf_code [2] $end
$var wire 1 &" m3|key_buf_code [1] $end
$var wire 1 '" m3|key_buf_code [0] $end
$upscope $end
$upscope $end
$enddefinitions $end
#0
$dumpvars
0!
b0 "
1#
0;
0:
09
08
07
06
05
04
03
02
01
00
0/
0.
0-
0,
0+
0*
0)
0(
0'
0&
0%
0$
0?
1>
1=
1<
0C
0B
0A
0@
0X
0W
0V
0U
0T
0S
0R
0Q
0P
0O
0N
0M
0L
0K
0J
0I
0H
0G
0F
0E
0D
0Y
1Z
x[
1\
1]
1^
0_
1`
1a
1b
0c
0d
0e
0f
0g
0h
0i
0j
0k
0l
0m
0n
0o
0p
0q
0r
0s
0t
0u
0v
0w
0x
0y
0z
0{
0|
0}
0~
0!!
0"!
0#!
0$!
0%!
0&!
0'!
0(!
0)!
0*!
0+!
0,!
0-!
0.!
0/!
00!
01!
02!
03!
04!
05!
06!
17!
18!
19!
0:!
0;!
0<!
0=!
0>!
1?!
0@!
0A!
0B!
0C!
0D!
0E!
0F!
0G!
0H!
0I!
0J!
0K!
0L!
0M!
0N!
1O!
0P!
0Q!
0R!
1S!
0T!
0i!
0h!
0g!
0f!
0e!
zd!
zc!
zb!
za!
z`!
z_!
z^!
z]!
z\!
z[!
zZ!
zY!
zX!
zW!
zV!
zU!
0m!
0l!
0k!
0j!
0'"
0&"
0%"
0$"
0#"
0""
0!"
0~!
0}!
0|!
0{!
0z!
0y!
0x!
0w!
0v!
0u!
0t!
0s!
0r!
0q!
0p!
0o!
0n!
$end
#5000
1!
16!
#10000
0!
06!
#15000
1!
16!
#20000
0#
0!
08!
06!
#25000
1!
16!
1m!
1l!
0`
1_
1D!
1?
0>
07!
#30000
0!
06!
#35000
1!
16!
1k!
0l!
1`
0a
1F!
0D!
0=
1>
#40000
0!
06!
#45000
1!
16!
1j!
0k!
1a
0b
1D!
0<
1=
09!
#50000
0!
06!
#55000
1!
16!
0j!
0m!
0_
1b
0F!
0D!
1<
0?
19!
17!
#60000
0!
06!
#65000
1!
16!
1m!
1l!
0`
1_
1D!
1?
0>
07!
#70000
b1000 "
b1010 "
b1011 "
0!
1=!
1;!
1:!
06!
1C!
1A!
1K!
1I!
1H!
1E!
1B!
1d
1e
1L!
1A
1B
1P!
1N!
#75000
1!
16!
1g!
1h!
1%"
1&"
1k!
0l!
1`
0a
1h
1i
1"!
1#!
1Q!
0O!
1F!
0D!
1V
1W
19
1:
0=
1>
0P!
0N!
0I!
1R!
1P!
1G!
0E!
0e
1f
0S!
0L!
1@
0A
0R!
0P!
1T!
#80000
b11 "
b1 "
b0 "
0!
0=!
0;!
0:!
06!
0C!
0A!
0K!
0H!
0G!
0B!
0d
0f
1S!
1O!
0@
0B
1R!
1N!
0Q!
0T!
1P!
0R!
#85000
1!
16!
1j!
0k!
1a
0b
1D!
0<
1=
09!
#90000
0!
06!
#95000
1!
16!
0j!
0m!
0_
1b
0F!
0D!
1<
0?
19!
17!
#100000
0!
06!
#105000
1!
16!
1m!
1l!
0`
1_
1D!
1?
0>
07!
#110000
b100 "
b1100 "
b1110 "
0!
1=!
1<!
1;!
06!
1C!
1K!
1I!
1H!
1E!
1e
1L!
1Q!
1A
0P!
1R!
#115000
1!
16!
1f!
0g!
1!"
1""
0&"
1k!
0l!
1`
0a
0h
1l
1m
0#!
1$!
1F!
0D!
1U
0V
15
16
0:
0=
1>
0N!
0I!
0H!
1G!
0E!
0e
1f
1I!
0S!
0Q!
1@
0A
0R!
1P!
1S!
1T!
1R!
0T!
#120000
b1010 "
b10 "
b0 "
0!
0=!
0<!
0;!
06!
0C!
0K!
0I!
0G!
0f
0L!
0@
0R!
#125000
1!
16!
1j!
0k!
1a
0b
1D!
0<
1=
09!
#130000
0!
06!
#135000
1!
16!
0j!
0m!
0_
1b
0F!
0D!
1<
0?
19!
17!
#140000
b1 "
b101 "
b111 "
0!
1<!
1;!
1:!
06!
1C!
1A!
1>!
1K!
1I!
1H!
1B!
1@!
1c
1d
1L!
1B
1C
1N!
1J!
#145000
1!
16!
0f!
1g!
1i!
1{!
1|!
0""
0%"
1&"
1'"
1m!
1l!
0`
1_
1g
1h
0i
0l
1p
1q
1!!
1#!
0$!
0O!
1M!
1D!
0U
1V
1X
11
12
06
09
1:
1;
1?
0>
0P!
0N!
0J!
07!
1P!
1N!
1E!
1e
1Q!
1A
0P!
1R!
#150000
b110 "
b10 "
b0 "
0!
0<!
0;!
0:!
06!
0C!
0A!
0>!
0K!
0I!
0H!
0E!
0B!
0@!
0c
0d
0e
0L!
0Q!
0M!
0A
0B
0C
1P!
0N!
1J!
1O!
0R!
1N!
0P!
#155000
1!
16!
1k!
0l!
1`
0a
1F!
0D!
0=
1>
#160000
0!
06!
#165000
1!
16!
1j!
0k!
1a
0b
1D!
0<
1=
09!
#170000
0!
06!
#175000
1!
16!
0j!
0m!
0_
1b
0F!
0D!
1<
0?
19!
17!
#180000
0!
06!
#185000
1!
16!
1m!
1l!
0`
1_
1D!
1?
0>
07!
#190000
b1 "
b101 "
b111 "
0!
1<!
1;!
1:!
06!
1C!
1A!
1>!
1K!
1I!
1H!
1E!
1B!
1@!
1c
1d
1e
1L!
0O!
1M!
1A
1B
1C
1P!
0N!
0J!
1Q!
0P!
1N!
1R!
#195000
1!
16!
1f!
0g!
0i!
1w!
1x!
0|!
0!"
1""
1#"
1%"
1k!
0l!
1`
0a
1i
1k
1l
0m
0p
1t
1u
0!!
0#!
1$!
1F!
0D!
1U
0V
0X
1-
1.
02
05
16
17
19
0=
1>
1P!
0I!
1G!
0E!
0e
1f
0S!
0L!
1@
0A
0R!
0P!
1T!
#200000
b110 "
b10 "
b0 "
0!
0<!
0;!
0:!
06!
0C!
0A!
0>!
0K!
0H!
0G!
0B!
0@!
0c
0d
0f
1S!
0M!
0@
0B
0C
1R!
0N!
1J!
1O!
0T!
1N!
0Q!
1P!
0R!
#205000
1!
16!
1j!
0k!
1a
0b
1D!
0<
1=
09!
#210000
0!
06!
#215000
1!
16!
0j!
0m!
0_
1b
0F!
0D!
1<
0?
19!
17!
#220000
b1000 "
b1100 "
b1110 "
0!
1=!
1<!
1;!
06!
1C!
1K!
1I!
1L!
#225000
1!
16!
0f!
1g!
1i!
1s!
1t!
0x!
0{!
1|!
1}!
1!"
0%"
0&"
0'"
1m!
1l!
0`
1_
0g
0h
0i
1m
1o
1p
0q
0t
1x
1y
1!!
1#!
0$!
1D!
0U
1V
1X
1)
1*
0.
01
12
13
15
09
0:
0;
1?
0>
0P!
0N!
0J!
07!
1H!
1E!
1e
1A
1P!
#230000
b110 "
b10 "
b0 "
0!
0=!
0<!
0;!
06!
0C!
0K!
0I!
0H!
0E!
0e
0L!
0A
0P!
#235000
1!
16!
1k!
0l!
1`
0a
1F!
0D!
0=
1>
#240000
0!
06!
#245000
1!
16!
1j!
0k!
1a
0b
1D!
0<
1=
09!
#250000
0!
06!
#255000
1!
16!
0j!
0m!
0_
1b
0F!
0D!
1<
0?
19!
17!
#260000
0!
06!
#265000
1!
16!
1m!
1l!
0`
1_
1D!
1?
0>
07!
#270000
0!
06!
#275000
1!
16!
1k!
0l!
1`
0a
1F!
0D!
0=
1>
#280000
0!
06!
#285000
1!
16!
1j!
0k!
1a
0b
1D!
0<
1=
09!
#290000
0!
06!
#295000
1!
16!
0j!
0m!
0_
1b
0F!
0D!
1<
0?
19!
17!
#300000
0!
06!
#305000
1!
16!
1m!
1l!
0`
1_
1D!
1?
0>
07!
#310000
0!
06!
#315000
1!
16!
1k!
0l!
1`
0a
1F!
0D!
0=
1>
#320000
0!
06!
#325000
1!
16!
1j!
0k!
1a
0b
1D!
0<
1=
09!
#330000
0!
06!
#335000
1!
16!
0j!
0m!
0_
1b
0F!
0D!
1<
0?
19!
17!
#340000
0!
06!
#345000
1!
16!
1m!
1l!
0`
1_
1D!
1?
0>
07!
#350000
0!
06!
#355000
1!
16!
1k!
0l!
1`
0a
1F!
0D!
0=
1>
#360000
0!
06!
#365000
1!
16!
1j!
0k!
1a
0b
1D!
0<
1=
09!
#370000
0!
06!
#375000
1!
16!
0j!
0m!
0_
1b
0F!
0D!
1<
0?
19!
17!
#380000
0!
06!
#385000
1!
16!
1m!
1l!
0`
1_
1D!
1?
0>
07!
#390000
0!
06!
#395000
1!
16!
1k!
0l!
1`
0a
1F!
0D!
0=
1>
#400000
0!
06!
#405000
1!
16!
1j!
0k!
1a
0b
1D!
0<
1=
09!
#410000
0!
06!
#415000
1!
16!
0j!
0m!
0_
1b
0F!
0D!
1<
0?
19!
17!
#420000
0!
06!
#425000
1!
16!
1m!
1l!
0`
1_
1D!
1?
0>
07!
#430000
0!
06!
#435000
1!
16!
1k!
0l!
1`
0a
1F!
0D!
0=
1>
#440000
0!
06!
#445000
1!
16!
1j!
0k!
1a
0b
1D!
0<
1=
09!
#450000
0!
06!
#455000
1!
16!
0j!
0m!
0_
1b
0F!
0D!
1<
0?
19!
17!
#460000
0!
06!
#465000
1!
16!
1m!
1l!
0`
1_
1D!
1?
0>
07!
#470000
0!
06!
#475000
1!
16!
1k!
0l!
1`
0a
1F!
0D!
0=
1>
#480000
0!
06!
#485000
1!
16!
1j!
0k!
1a
0b
1D!
0<
1=
09!
#490000
0!
06!
#495000
1!
16!
0j!
0m!
0_
1b
0F!
0D!
1<
0?
19!
17!
#500000
0!
06!
#505000
1!
16!
1m!
1l!
0`
1_
1D!
1?
0>
07!
#510000
0!
06!
#515000
1!
16!
1k!
0l!
1`
0a
1F!
0D!
0=
1>
#520000
0!
06!
#525000
1!
16!
1j!
0k!
1a
0b
1D!
0<
1=
09!
#530000
0!
06!
#535000
1!
16!
0j!
0m!
0_
1b
0F!
0D!
1<
0?
19!
17!
#540000
0!
06!
#545000
1!
16!
1m!
1l!
0`
1_
1D!
1?
0>
07!
#550000
0!
06!
#555000
1!
16!
1k!
0l!
1`
0a
1F!
0D!
0=
1>
#560000
0!
06!
#565000
1!
16!
1j!
0k!
1a
0b
1D!
0<
1=
09!
#570000
0!
06!
#575000
1!
16!
0j!
0m!
0_
1b
0F!
0D!
1<
0?
19!
17!
#580000
0!
06!
#585000
1!
16!
1m!
1l!
0`
1_
1D!
1?
0>
07!
#590000
0!
06!
#595000
1!
16!
1k!
0l!
1`
0a
1F!
0D!
0=
1>
#600000
0!
06!
#605000
1!
16!
1j!
0k!
1a
0b
1D!
0<
1=
09!
#610000
0!
06!
#615000
1!
16!
0j!
0m!
0_
1b
0F!
0D!
1<
0?
19!
17!
#620000
0!
06!
#625000
1!
16!
1m!
1l!
0`
1_
1D!
1?
0>
07!
#630000
0!
06!
#635000
1!
16!
1k!
0l!
1`
0a
1F!
0D!
0=
1>
#640000
0!
06!
#645000
1!
16!
1j!
0k!
1a
0b
1D!
0<
1=
09!
#650000
0!
06!
#655000
1!
16!
0j!
0m!
0_
1b
0F!
0D!
1<
0?
19!
17!
#660000
0!
06!
#665000
1!
16!
1m!
1l!
0`
1_
1D!
1?
0>
07!
#670000
0!
06!
#675000
1!
16!
1k!
0l!
1`
0a
1F!
0D!
0=
1>
#680000
0!
06!
#685000
1!
16!
1j!
0k!
1a
0b
1D!
0<
1=
09!
#690000
0!
06!
#695000
1!
16!
0j!
0m!
0_
1b
0F!
0D!
1<
0?
19!
17!
#700000
0!
06!
#705000
1!
16!
1m!
1l!
0`
1_
1D!
1?
0>
07!
#710000
0!
06!
#715000
1!
16!
1k!
0l!
1`
0a
1F!
0D!
0=
1>
#720000
0!
06!
#725000
1!
16!
1j!
0k!
1a
0b
1D!
0<
1=
09!
#730000
0!
06!
#735000
1!
16!
0j!
0m!
0_
1b
0F!
0D!
1<
0?
19!
17!
#740000
0!
06!
#745000
1!
16!
1m!
1l!
0`
1_
1D!
1?
0>
07!
#750000
0!
06!
#755000
1!
16!
1k!
0l!
1`
0a
1F!
0D!
0=
1>
#760000
0!
06!
#765000
1!
16!
1j!
0k!
1a
0b
1D!
0<
1=
09!
#770000
0!
06!
#775000
1!
16!
0j!
0m!
0_
1b
0F!
0D!
1<
0?
19!
17!
#780000
0!
06!
#785000
1!
16!
1m!
1l!
0`
1_
1D!
1?
0>
07!
#790000
0!
06!
#795000
1!
16!
1k!
0l!
1`
0a
1F!
0D!
0=
1>
#800000
0!
06!
#805000
1!
16!
1j!
0k!
1a
0b
1D!
0<
1=
09!
#810000
0!
06!
#815000
1!
16!
0j!
0m!
0_
1b
0F!
0D!
1<
0?
19!
17!
#820000
0!
06!
#825000
1!
16!
1m!
1l!
0`
1_
1D!
1?
0>
07!
#830000
0!
06!
#835000
1!
16!
1k!
0l!
1`
0a
1F!
0D!
0=
1>
#840000
0!
06!
#845000
1!
16!
1j!
0k!
1a
0b
1D!
0<
1=
09!
#850000
0!
06!
#855000
1!
16!
0j!
0m!
0_
1b
0F!
0D!
1<
0?
19!
17!
#860000
0!
06!
#865000
1!
16!
1m!
1l!
0`
1_
1D!
1?
0>
07!
#870000
0!
06!
#875000
1!
16!
1k!
0l!
1`
0a
1F!
0D!
0=
1>
#880000
0!
06!
#885000
1!
16!
1j!
0k!
1a
0b
1D!
0<
1=
09!
#890000
0!
06!
#895000
1!
16!
0j!
0m!
0_
1b
0F!
0D!
1<
0?
19!
17!
#900000
0!
06!
#905000
1!
16!
1m!
1l!
0`
1_
1D!
1?
0>
07!
#910000
0!
06!
#915000
1!
16!
1k!
0l!
1`
0a
1F!
0D!
0=
1>
#920000
0!
06!
#925000
1!
16!
1j!
0k!
1a
0b
1D!
0<
1=
09!
#930000
0!
06!
#935000
1!
16!
0j!
0m!
0_
1b
0F!
0D!
1<
0?
19!
17!
#940000
0!
06!
#945000
1!
16!
1m!
1l!
0`
1_
1D!
1?
0>
07!
#950000
0!
06!
#955000
1!
16!
1k!
0l!
1`
0a
1F!
0D!
0=
1>
#960000
0!
06!
#965000
1!
16!
1j!
0k!
1a
0b
1D!
0<
1=
09!
#970000
0!
06!
#975000
1!
16!
0j!
0m!
0_
1b
0F!
0D!
1<
0?
19!
17!
#980000
0!
06!
#985000
1!
16!
1m!
1l!
0`
1_
1D!
1?
0>
07!
#990000
0!
06!
#995000
1!
16!
1k!
0l!
1`
0a
1F!
0D!
0=
1>
