大二下/數位系統技術/Alarm_clock/simulation/qsim/Alarm_clock.msim.vcd
$comment
	File created using the following command:
		vcd file Alarm_clock.msim.vcd -direction
$end
$date
	Wed May 01 10:47:13 2024
$end
$version
	ModelSim Version 2020.1
$end
$timescale
	1ps
$end

$scope module alarm_clock_vlg_vec_tst $end
$var reg 1 ! clk $end
$var reg 4 " hr0 [3:0] $end
$var reg 2 # hr1 [1:0] $end
$var reg 4 $ min0 [3:0] $end
$var reg 3 % min1 [2:0] $end
$var reg 1 & rst $end
$var wire 1 ' cnt0 [3] $end
$var wire 1 ( cnt0 [2] $end
$var wire 1 ) cnt0 [1] $end
$var wire 1 * cnt0 [0] $end
$var wire 1 + cnt1 [3] $end
$var wire 1 , cnt1 [2] $end
$var wire 1 - cnt1 [1] $end
$var wire 1 . cnt1 [0] $end
$var wire 1 / cnt2 [3] $end
$var wire 1 0 cnt2 [2] $end
$var wire 1 1 cnt2 [1] $end
$var wire 1 2 cnt2 [0] $end
$var wire 1 3 cnt3 [3] $end
$var wire 1 4 cnt3 [2] $end
$var wire 1 5 cnt3 [1] $end
$var wire 1 6 cnt3 [0] $end
$var wire 1 7 led_on $end

$scope module i1 $end
$var wire 1 8 gnd $end
$var wire 1 9 vcc $end
$var wire 1 : unknown $end
$var tri1 1 ; devclrn $end
$var tri1 1 < devpor $end
$var tri1 1 = devoe $end
$var wire 1 > cnt3[0]~output_o $end
$var wire 1 ? cnt3[1]~output_o $end
$var wire 1 @ cnt3[2]~output_o $end
$var wire 1 A cnt3[3]~output_o $end
$var wire 1 B cnt2[0]~output_o $end
$var wire 1 C cnt2[1]~output_o $end
$var wire 1 D cnt2[2]~output_o $end
$var wire 1 E cnt2[3]~output_o $end
$var wire 1 F cnt1[0]~output_o $end
$var wire 1 G cnt1[1]~output_o $end
$var wire 1 H cnt1[2]~output_o $end
$var wire 1 I cnt1[3]~output_o $end
$var wire 1 J cnt0[0]~output_o $end
$var wire 1 K cnt0[1]~output_o $end
$var wire 1 L cnt0[2]~output_o $end
$var wire 1 M cnt0[3]~output_o $end
$var wire 1 N led_on~output_o $end
$var wire 1 O clk~input_o $end
$var wire 1 P m0|m0|cnt0[0]~5_combout $end
$var wire 1 Q rst~input_o $end
$var wire 1 R m0|m1|cnt0[0]~3_combout $end
$var wire 1 S m0|m1|cnt0[2]~1_combout $end
$var wire 1 T m0|m1|cnt0~0_combout $end
$var wire 1 U m0|m1|cnt0~2_combout $end
$var wire 1 V m0|m1|Equal0~0_combout $end
$var wire 1 W m0|m1|cnt1[0]~0_combout $end
$var wire 1 X m0|m1|cnt1[1]~1_combout $end
$var wire 1 Y m0|m1|Add0~0_combout $end
$var wire 1 Z m0|m1|cnt1[2]~2_combout $end
$var wire 1 [ m0|m1|Add0~1_combout $end
$var wire 1 \ m0|m1|cnt1[3]~3_combout $end
$var wire 1 ] m0|m1|Equal0~1_combout $end
$var wire 1 ^ m0|m1|Equal0~2_combout $end
$var wire 1 _ m0|m0|cnt0~4_combout $end
$var wire 1 ` m0|m0|Equal0~0_combout $end
$var wire 1 a m0|m0|cnt1[0]~8_combout $end
$var wire 1 b m0|m0|cnt1[1]~4_combout $end
$var wire 1 c m0|m0|cnt1[2]~5_combout $end
$var wire 1 d m0|m0|cnt1[2]~6_combout $end
$var wire 1 e m0|m0|cnt1[3]~7_combout $end
$var wire 1 f m0|m0|Equal0~1_combout $end
$var wire 1 g m0|m0|Add1~0_combout $end
$var wire 1 h m0|m0|cnt0~3_combout $end
$var wire 1 i m0|m0|cnt1[0]~2_combout $end
$var wire 1 j m0|m0|cnt0~2_combout $end
$var wire 1 k m0|m0|Equal0~2_combout $end
$var wire 1 l m0|m0|cnt1[0]~3_combout $end
$var wire 1 m min1[2]~input_o $end
$var wire 1 n min1[0]~input_o $end
$var wire 1 o min1[1]~input_o $end
$var wire 1 p min0[3]~input_o $end
$var wire 1 q min0[2]~input_o $end
$var wire 1 r min0[0]~input_o $end
$var wire 1 s min0[1]~input_o $end
$var wire 1 t Equal15~0_combout $end
$var wire 1 u always0~0_combout $end
$var wire 1 v always0~1_combout $end
$var wire 1 w hr1[0]~input_o $end
$var wire 1 x always0~2_combout $end
$var wire 1 y hr1[1]~input_o $end
$var wire 1 z always0~3_combout $end
$var wire 1 { hr0[2]~input_o $end
$var wire 1 | hr0[0]~input_o $end
$var wire 1 } hr0[1]~input_o $end
$var wire 1 ~ always0~4_combout $end
$var wire 1 !! hr0[3]~input_o $end
$var wire 1 "! always0~5_combout $end
$var wire 1 #! Equal5~0_combout $end
$var wire 1 $! always0~6_combout $end
$var wire 1 %! always0~7_combout $end
$var wire 1 &! always0~8_combout $end
$var wire 1 '! always0~9_combout $end
$var wire 1 (! always0~10_combout $end
$var wire 1 )! always0~11_combout $end
$var wire 1 *! always0~12_combout $end
$var wire 1 +! always0~13_combout $end
$var wire 1 ,! always0~14_combout $end
$var wire 1 -! Equal1~0_combout $end
$var wire 1 .! always0~15_combout $end
$var wire 1 /! Equal1~1_combout $end
$var wire 1 0! always0~16_combout $end
$var wire 1 1! always0~17_combout $end
$var wire 1 2! Equal3~0_combout $end
$var wire 1 3! Equal3~1_combout $end
$var wire 1 4! always0~18_combout $end
$var wire 1 5! always0~19_combout $end
$var wire 1 6! always0~20_combout $end
$var wire 1 7! always0~21_combout $end
$var wire 1 8! always0~22_combout $end
$var wire 1 9! always0~23_combout $end
$var wire 1 :! always0~24_combout $end
$var wire 1 ;! always0~25_combout $end
$var wire 1 <! always0~26_combout $end
$var wire 1 =! dur_cnt~10_combout $end
$var wire 1 >! dur_cnt~11_combout $end
$var wire 1 ?! Add4~1_combout $end
$var wire 1 @! dur_cnt~12_combout $end
$var wire 1 A! Add4~0_combout $end
$var wire 1 B! dur_cnt~13_combout $end
$var wire 1 C! led_on~0_combout $end
$var wire 1 D! led_on~1_combout $end
$var wire 1 E! led_on~2_combout $end
$var wire 1 F! led_on~reg0_q $end
$var wire 1 G! m0|m0|cnt1 [3] $end
$var wire 1 H! m0|m0|cnt1 [2] $end
$var wire 1 I! m0|m0|cnt1 [1] $end
$var wire 1 J! m0|m0|cnt1 [0] $end
$var wire 1 K! m0|m0|cnt0 [3] $end
$var wire 1 L! m0|m0|cnt0 [2] $end
$var wire 1 M! m0|m0|cnt0 [1] $end
$var wire 1 N! m0|m0|cnt0 [0] $end
$var wire 1 O! m0|m1|cnt1 [3] $end
$var wire 1 P! m0|m1|cnt1 [2] $end
$var wire 1 Q! m0|m1|cnt1 [1] $end
$var wire 1 R! m0|m1|cnt1 [0] $end
$var wire 1 S! dur_cnt [3] $end
$var wire 1 T! dur_cnt [2] $end
$var wire 1 U! dur_cnt [1] $end
$var wire 1 V! dur_cnt [0] $end
$var wire 1 W! m0|m1|cnt0 [3] $end
$var wire 1 X! m0|m1|cnt0 [2] $end
$var wire 1 Y! m0|m1|cnt0 [1] $end
$var wire 1 Z! m0|m1|cnt0 [0] $end
$upscope $end
$upscope $end
$enddefinitions $end
#0
$dumpvars
0!
b0 "
b0 #
b0 $
b0 %
1&
0*
0)
0(
0'
0.
0-
0,
0+
02
01
00
0/
06
05
04
03
07
08
19
x:
1;
1<
1=
0>
0?
0@
0A
0B
0C
0D
0E
0F
0G
0H
0I
0J
0K
0L
0M
0N
0O
1P
1Q
1R
0S
0T
0U
0V
0W
0X
0Y
0Z
0[
0\
0]
0^
0_
0`
0a
0b
0c
0d
0e
0f
0g
0h
0i
0j
0k
0l
0m
0n
0o
0p
0q
0r
0s
1t
1u
0v
0w
1x
0y
1z
0{
0|
0}
1~
0!!
0"!
0#!
0$!
0%!
0&!
1'!
0(!
0)!
0*!
0+!
0,!
0-!
0.!
0/!
00!
01!
02!
03!
04!
05!
16!
07!
08!
19!
1:!
1;!
0<!
0=!
0>!
1?!
0@!
0A!
0B!
1C!
1D!
0E!
0F!
0J!
0I!
0H!
0G!
0N!
0M!
0L!
0K!
0R!
0Q!
0P!
0O!
0V!
0U!
0T!
0S!
0Z!
0Y!
0X!
0W!
$end
#5000
1!
1O
#10000
0&
0!
0Q
0O
#15000
1!
1O
1Z!
1J
1.!
1*
1T
0R
#20000
0!
0O
#25000
1!
1O
1Y!
0Z!
0J
1K
15!
0.!
1)
0*
1R
17!
#30000
0!
0O
#35000
1!
1O
1Z!
1J
1.!
1*
0T
1S
0R
#40000
0!
0O
#45000
1!
1O
0Y!
1X!
0Z!
0J
1L
0K
05!
1-!
0.!
0)
1(
0*
1R
07!
#50000
0!
0O
#55000
1!
1O
1Z!
1J
1.!
1*
1T
0R
#60000
0!
0O
#65000
1!
1O
1Y!
0Z!
0J
1K
15!
0.!
1)
0*
1R
17!
#70000
0!
0O
#75000
1!
1O
1Z!
1J
1.!
1*
1U
0T
0S
0R
#80000
0!
0O
#85000
1!
1O
1W!
0Y!
0X!
0Z!
0J
0L
0K
1M
10!
05!
0-!
0.!
1'
0)
0(
0*
1R
18!
07!
00!
1<!
08!
0<!
1E!
1=!
0E!
0=!
#90000
0!
0O
#95000
1!
1O
1Z!
1J
1.!
1V
1*
0U
0R
1W
#100000
0!
0O
#105000
1!
1O
1R!
0W!
0Z!
0J
0M
1F
0.!
0V
1.
0'
0*
1X
0W
1R
0X
1W
#110000
0!
0O
#115000
1!
1O
1Z!
1J
1*
1T
0R
#120000
0!
0O
#125000
1!
1O
1Y!
0Z!
0J
1K
15!
1)
0*
1R
17!
#130000
0!
0O
#135000
1!
1O
1Z!
1J
1*
0T
1S
0R
#140000
0!
0O
#145000
1!
1O
0Y!
1X!
0Z!
0J
1L
0K
05!
1-!
0)
1(
0*
1R
07!
#150000
0!
0O
#155000
1!
1O
1Z!
1J
1*
1T
0R
#160000
0!
0O
#165000
1!
1O
1Y!
0Z!
0J
1K
15!
1)
0*
1R
17!
#170000
0!
0O
#175000
1!
1O
1Z!
1J
1*
1U
0T
0S
0R
#180000
0!
0O
#185000
1!
1O
1W!
0Y!
0X!
0Z!
0J
0L
0K
1M
05!
0-!
1'
0)
0(
0*
1R
07!
#190000
0!
0O
#195000
1!
1O
1Z!
1J
1V
1*
0U
0R
1X
0W
#200000
0!
0O
#205000
1!
1O
1Q!
0R!
0W!
0Z!
0J
0M
0F
1G
06!
0V
1-
0.
0'
0*
1W
1R
0W
#210000
0!
0O
#215000
1!
1O
1Z!
1J
1.!
1*
1T
0R
#220000
0!
0O
#225000
1!
1O
1Y!
0Z!
0J
1K
15!
0.!
1)
0*
1R
#230000
0!
0O
#235000
1!
1O
1Z!
1J
1.!
1*
0T
1S
0R
#240000
0!
0O
#245000
1!
1O
0Y!
1X!
0Z!
0J
1L
0K
05!
1-!
0.!
0)
1(
0*
1R
#250000
0!
0O
#255000
1!
1O
1Z!
1J
1.!
1*
1T
0R
#260000
0!
0O
#265000
1!
1O
1Y!
0Z!
0J
1K
15!
0.!
1)
0*
1R
#270000
0!
0O
#275000
1!
1O
1Z!
1J
1.!
1*
1U
0T
0S
0R
#280000
0!
0O
#285000
1!
1O
1W!
0Y!
0X!
0Z!
0J
0L
0K
1M
10!
05!
0-!
0.!
1'
0)
0(
0*
1R
00!
#290000
0!
0O
#295000
1!
1O
1Z!
1J
1.!
1V
1*
0U
0R
1W
#300000
0!
0O
#305000
1!
1O
1R!
0W!
0Z!
0J
0M
1F
11!
0.!
1Y
0V
1.
0'
0*
0X
0W
1R
1X
1W
#310000
0!
0O
#315000
1!
1O
1Z!
1J
1*
1T
0R
#320000
0!
0O
#325000
1!
1O
1Y!
0Z!
0J
1K
15!
1)
0*
1R
#330000
0!
0O
#335000
1!
1O
1Z!
1J
1*
0T
1S
0R
#340000
0!
0O
#345000
1!
1O
0Y!
1X!
0Z!
0J
1L
0K
05!
1-!
0)
1(
0*
1R
#350000
0!
0O
#355000
1!
1O
1Z!
1J
1*
1T
0R
#360000
0!
0O
#365000
1!
1O
1Y!
0Z!
0J
1K
15!
1)
0*
1R
#370000
0!
0O
#375000
1!
1O
1Z!
1J
1*
1U
0T
0S
0R
#380000
0!
0O
#385000
1!
1O
1W!
0Y!
0X!
0Z!
0J
0L
0K
1M
05!
0-!
1'
0)
0(
0*
1R
#390000
0!
0O
#395000
1!
1O
1Z!
1J
1V
1*
0U
0R
1Z
0X
0W
#400000
0!
0O
#405000
1!
1O
1P!
0Q!
0R!
0W!
0Z!
0J
0M
0F
0G
1H
12!
1]
01!
0V
1,
0-
0.
0'
0*
1W
1R
0W
#410000
0!
0O
#415000
1!
1O
1Z!
1J
1.!
1*
1T
0R
#420000
0!
0O
#425000
1!
1O
1Y!
0Z!
0J
1K
15!
0.!
1)
0*
1R
#430000
0!
0O
#435000
1!
1O
1Z!
1J
1.!
1*
0T
1S
0R
#440000
0!
0O
#445000
1!
1O
0Y!
1X!
0Z!
0J
1L
0K
05!
1-!
0.!
0)
1(
0*
1R
#450000
0!
0O
#455000
1!
1O
1Z!
1J
1.!
1*
1T
0R
#460000
0!
0O
#465000
1!
1O
1Y!
0Z!
0J
1K
15!
0.!
1)
0*
1R
#470000
0!
0O
#475000
1!
1O
1Z!
1J
1.!
1*
1U
0T
0S
0R
#480000
0!
0O
#485000
1!
1O
1W!
0Y!
0X!
0Z!
0J
0L
0K
1M
10!
05!
0-!
0.!
1'
0)
0(
0*
1R
00!
#490000
0!
0O
#495000
1!
1O
1Z!
1J
1.!
1V
1*
0U
0R
1W
#500000
0!
0O
#505000
1!
1O
1R!
0W!
0Z!
0J
0M
1F
0.!
1v
1^
0V
1.
0'
0*
0W
1R
0v
0^
1W
#510000
0!
0O
#515000
1!
1O
1Z!
1J
1*
1T
0R
#520000
0!
0O
#525000
1!
1O
1Y!
0Z!
0J
1K
15!
1)
0*
1R
#530000
0!
0O
#535000
1!
1O
1Z!
1J
1*
0T
1S
0R
#540000
0!
0O
#545000
1!
1O
0Y!
1X!
0Z!
0J
1L
0K
05!
1-!
0)
1(
0*
1R
#550000
0!
0O
#555000
1!
1O
1Z!
1J
1*
1T
0R
#560000
0!
0O
#565000
1!
1O
1Y!
0Z!
0J
1K
15!
1)
0*
1R
#570000
0!
0O
#575000
1!
1O
1Z!
1J
1*
1U
0T
0S
0R
#580000
0!
0O
#585000
1!
1O
1W!
0Y!
0X!
0Z!
0J
0L
0K
1M
05!
0-!
1'
0)
0(
0*
1R
#590000
0!
0O
#595000
1!
1O
1Z!
1J
1V
1*
0U
0R
1v
1^
0W
0Z
#600000
0!
0O
#605000
1!
1O
1N!
0P!
0R!
0W!
0Z!
0J
0M
0F
0H
1B
09!
1&!
1`
16!
02!
0]
0Y
0v
0^
0V
12
0,
0.
0'
0*
1j
0P
1W
1R
0;!
0W
#610000
0!
0O
#615000
1!
1O
1Z!
1J
1.!
1*
1T
0R
#620000
0!
0O
#625000
1!
1O
1Y!
0Z!
0J
1K
15!
0.!
1)
0*
1R
17!
#630000
0!
0O
#635000
1!
1O
1Z!
1J
1.!
1*
0T
1S
0R
#640000
0!
0O
#645000
1!
1O
0Y!
1X!
0Z!
0J
1L
0K
05!
1-!
0.!
0)
1(
0*
1R
07!
#650000
0!
0O
#655000
1!
1O
1Z!
1J
1.!
1*
1T
0R
#660000
0!
0O
#665000
1!
1O
1Y!
0Z!
0J
1K
15!
0.!
1)
0*
1R
17!
#670000
0!
0O
#675000
1!
1O
1Z!
1J
1.!
1*
1U
0T
0S
0R
#680000
0!
0O
#685000
1!
1O
1W!
0Y!
0X!
0Z!
0J
0L
0K
1M
10!
05!
0-!
0.!
1'
0)
0(
0*
1R
18!
07!
00!
08!
#690000
0!
0O
#695000
1!
1O
1Z!
1J
1.!
1V
1*
0U
0R
1W
#700000
0!
0O
#705000
1!
1O
1R!
0W!
0Z!
0J
0M
1F
0.!
0V
1.
0'
0*
1X
0W
1R
0X
1W
#710000
0!
0O
#715000
1!
1O
1Z!
1J
1*
1T
0R
#720000
0!
0O
#725000
1!
1O
1Y!
0Z!
0J
1K
15!
1)
0*
1R
17!
#730000
0!
0O
#735000
1!
1O
1Z!
1J
1*
0T
1S
0R
#740000
0!
0O
#745000
1!
1O
0Y!
1X!
0Z!
0J
1L
0K
05!
1-!
0)
1(
0*
1R
07!
#750000
0!
0O
#755000
1!
1O
1Z!
1J
1*
1T
0R
#760000
0!
0O
#765000
1!
1O
1Y!
0Z!
0J
1K
15!
1)
0*
1R
17!
#770000
0!
0O
#775000
1!
1O
1Z!
1J
1*
1U
0T
0S
0R
#780000
0!
0O
#785000
1!
1O
1W!
0Y!
0X!
0Z!
0J
0L
0K
1M
05!
0-!
1'
0)
0(
0*
1R
07!
#790000
0!
0O
#795000
1!
1O
1Z!
1J
1V
1*
0U
0R
1X
0W
#800000
0!
0O
#805000
1!
1O
1Q!
0R!
0W!
0Z!
0J
0M
0F
1G
06!
0V
1-
0.
0'
0*
1W
1R
0W
#810000
0!
0O
#815000
1!
1O
1Z!
1J
1.!
1*
1T
0R
#820000
0!
0O
#825000
1!
1O
1Y!
0Z!
0J
1K
15!
0.!
1)
0*
1R
#830000
0!
0O
#835000
1!
1O
1Z!
1J
1.!
1*
0T
1S
0R
#840000
0!
0O
#845000
1!
1O
0Y!
1X!
0Z!
0J
1L
0K
05!
1-!
0.!
0)
1(
0*
1R
#850000
0!
0O
#855000
1!
1O
1Z!
1J
1.!
1*
1T
0R
#860000
0!
0O
#865000
1!
1O
1Y!
0Z!
0J
1K
15!
0.!
1)
0*
1R
#870000
0!
0O
#875000
1!
1O
1Z!
1J
1.!
1*
1U
0T
0S
0R
#880000
0!
0O
#885000
1!
1O
1W!
0Y!
0X!
0Z!
0J
0L
0K
1M
10!
05!
0-!
0.!
1'
0)
0(
0*
1R
00!
#890000
0!
0O
#895000
1!
1O
1Z!
1J
1.!
1V
1*
0U
0R
1W
#900000
0!
0O
#905000
1!
1O
1R!
0W!
0Z!
0J
0M
1F
11!
0.!
1Y
0V
1.
0'
0*
0X
0W
1R
1X
1W
#910000
0!
0O
#915000
1!
1O
1Z!
1J
1*
1T
0R
#920000
0!
0O
#925000
1!
1O
1Y!
0Z!
0J
1K
15!
1)
0*
1R
#930000
0!
0O
#935000
1!
1O
1Z!
1J
1*
0T
1S
0R
#940000
0!
0O
#945000
1!
1O
0Y!
1X!
0Z!
0J
1L
0K
05!
1-!
0)
1(
0*
1R
#950000
0!
0O
#955000
1!
1O
1Z!
1J
1*
1T
0R
#960000
0!
0O
#965000
1!
1O
1Y!
0Z!
0J
1K
15!
1)
0*
1R
#970000
0!
0O
#975000
1!
1O
1Z!
1J
1*
1U
0T
0S
0R
#980000
0!
0O
#985000
1!
1O
1W!
0Y!
0X!
0Z!
0J
0L
0K
1M
05!
0-!
1'
0)
0(
0*
1R
#990000
0!
0O
#995000
1!
1O
1Z!
1J
1V
1*
0U
0R
1Z
0X
0W
#1000000
0!
0O
#1005000
1!
1O
1P!
0Q!
0R!
0W!
0Z!
0J
0M
0F
0G
1H
12!
1]
01!
0V
1,
0-
0.
0'
0*
1W
1R
0W
#1010000
0!
0O
#1015000
1!
1O
1Z!
1J
1.!
1*
1T
0R
#1020000
0!
0O
#1025000
1!
1O
1Y!
0Z!
0J
1K
15!
0.!
1)
0*
1R
#1030000
0!
0O
#1035000
1!
1O
1Z!
1J
1.!
1*
0T
1S
0R
#1040000
0!
0O
#1045000
1!
1O
0Y!
1X!
0Z!
0J
1L
0K
05!
1-!
0.!
0)
1(
0*
1R
#1050000
0!
0O
#1055000
1!
1O
1Z!
1J
1.!
1*
1T
0R
#1060000
0!
0O
#1065000
1!
1O
1Y!
0Z!
0J
1K
15!
0.!
1)
0*
1R
#1070000
0!
0O
#1075000
1!
1O
1Z!
1J
1.!
1*
1U
0T
0S
0R
#1080000
0!
0O
#1085000
1!
1O
1W!
0Y!
0X!
0Z!
0J
0L
0K
1M
10!
05!
0-!
0.!
1'
0)
0(
0*
1R
00!
#1090000
0!
0O
#1095000
1!
1O
1Z!
1J
1.!
1V
1*
0U
0R
1W
#1100000
0!
0O
#1105000
1!
1O
1R!
0W!
0Z!
0J
0M
1F
0.!
1v
1^
0V
1.
0'
0*
0W
1R
0v
0^
1W
#1110000
0!
0O
#1115000
1!
1O
1Z!
1J
1*
1T
0R
#1120000
0!
0O
#1125000
1!
1O
1Y!
0Z!
0J
1K
15!
1)
0*
1R
#1130000
0!
0O
#1135000
1!
1O
1Z!
1J
1*
0T
1S
0R
#1140000
0!
0O
#1145000
1!
1O
0Y!
1X!
0Z!
0J
1L
0K
05!
1-!
0)
1(
0*
1R
#1150000
0!
0O
#1155000
1!
1O
1Z!
1J
1*
1T
0R
#1160000
0!
0O
#1165000
1!
1O
1Y!
0Z!
0J
1K
15!
1)
0*
1R
#1170000
0!
0O
#1175000
1!
1O
1Z!
1J
1*
1U
0T
0S
0R
#1180000
0!
0O
#1185000
1!
1O
1W!
0Y!
0X!
0Z!
0J
0L
0K
1M
05!
0-!
1'
0)
0(
0*
1R
#1190000
0!
0O
#1195000
1!
1O
1Z!
1J
1V
1*
0U
0R
1v
1^
0W
0Z
#1200000
0!
0O
#1205000
1!
1O
1M!
0N!
0P!
0R!
0W!
0Z!
0J
0M
0F
0H
0B
1C
0&!
0`
16!
02!
0]
0Y
0v
0^
0V
11
02
0,
0.
0'
0*
1P
1W
1R
0W
#1210000
0!
0O
#1215000
1!
1O
1Z!
1J
1.!
1*
1T
0R
#1220000
0!
0O
#1225000
1!
1O
1Y!
0Z!
0J
1K
15!
0.!
1)
0*
1R
17!
#1230000
0!
0O
#1235000
1!
1O
1Z!
1J
1.!
1*
0T
1S
0R
#1240000
0!
0O
#1245000
1!
1O
0Y!
1X!
0Z!
0J
1L
0K
05!
1-!
0.!
0)
1(
0*
1R
07!
#1250000
0!
0O
#1255000
1!
1O
1Z!
1J
1.!
1*
1T
0R
#1260000
0!
0O
#1265000
1!
1O
1Y!
0Z!
0J
1K
15!
0.!
1)
0*
1R
17!
#1270000
0!
0O
#1275000
1!
1O
1Z!
1J
1.!
1*
1U
0T
0S
0R
#1280000
0!
0O
#1285000
1!
1O
1W!
0Y!
0X!
0Z!
0J
0L
0K
1M
10!
05!
0-!
0.!
1'
0)
0(
0*
1R
18!
07!
00!
08!
#1290000
0!
0O
#1295000
1!
1O
1Z!
1J
1.!
1V
1*
0U
0R
1W
#1300000
0!
0O
#1305000
1!
1O
1R!
0W!
0Z!
0J
0M
1F
0.!
0V
1.
0'
0*
1X
0W
1R
0X
1W
#1310000
0!
0O
#1315000
1!
1O
1Z!
1J
1*
1T
0R
#1320000
0!
0O
#1325000
1!
1O
1Y!
0Z!
0J
1K
15!
1)
0*
1R
17!
#1330000
0!
0O
#1335000
1!
1O
1Z!
1J
1*
0T
1S
0R
#1340000
0!
0O
#1345000
1!
1O
0Y!
1X!
0Z!
0J
1L
0K
05!
1-!
0)
1(
0*
1R
07!
#1350000
0!
0O
#1355000
1!
1O
1Z!
1J
1*
1T
0R
#1360000
0!
0O
#1365000
1!
1O
1Y!
0Z!
0J
1K
15!
1)
0*
1R
17!
#1370000
0!
0O
#1375000
1!
1O
1Z!
1J
1*
1U
0T
0S
0R
#1380000
0!
0O
#1385000
1!
1O
1W!
0Y!
0X!
0Z!
0J
0L
0K
1M
05!
0-!
1'
0)
0(
0*
1R
07!
#1390000
0!
0O
#1395000
1!
1O
1Z!
1J
1V
1*
0U
0R
1X
0W
#1400000
0!
0O
#1405000
1!
1O
1Q!
0R!
0W!
0Z!
0J
0M
0F
1G
06!
0V
1-
0.
0'
0*
1W
1R
0W
#1410000
0!
0O
#1415000
1!
1O
1Z!
1J
1.!
1*
1T
0R
#1420000
0!
0O
#1425000
1!
1O
1Y!
0Z!
0J
1K
15!
0.!
1)
0*
1R
#1430000
0!
0O
#1435000
1!
1O
1Z!
1J
1.!
1*
0T
1S
0R
#1440000
0!
0O
#1445000
1!
1O
0Y!
1X!
0Z!
0J
1L
0K
05!
1-!
0.!
0)
1(
0*
1R
#1450000
0!
0O
#1455000
1!
1O
1Z!
1J
1.!
1*
1T
0R
#1460000
0!
0O
#1465000
1!
1O
1Y!
0Z!
0J
1K
15!
0.!
1)
0*
1R
#1470000
0!
0O
#1475000
1!
1O
1Z!
1J
1.!
1*
1U
0T
0S
0R
#1480000
0!
0O
#1485000
1!
1O
1W!
0Y!
0X!
0Z!
0J
0L
0K
1M
10!
05!
0-!
0.!
1'
0)
0(
0*
1R
00!
#1490000
0!
0O
#1495000
1!
1O
1Z!
1J
1.!
1V
1*
0U
0R
1W
#1500000
0!
0O
#1505000
1!
1O
1R!
0W!
0Z!
0J
0M
1F
11!
0.!
1Y
0V
1.
0'
0*
0X
0W
1R
1X
1W
#1510000
0!
0O
#1515000
1!
1O
1Z!
1J
1*
1T
0R
#1520000
0!
0O
#1525000
1!
1O
1Y!
0Z!
0J
1K
15!
1)
0*
1R
#1530000
0!
0O
#1535000
1!
1O
1Z!
1J
1*
0T
1S
0R
#1540000
0!
0O
#1545000
1!
1O
0Y!
1X!
0Z!
0J
1L
0K
05!
1-!
0)
1(
0*
1R
#1550000
0!
0O
#1555000
1!
1O
1Z!
1J
1*
1T
0R
#1560000
0!
0O
#1565000
1!
1O
1Y!
0Z!
0J
1K
15!
1)
0*
1R
#1570000
0!
0O
#1575000
1!
1O
1Z!
1J
1*
1U
0T
0S
0R
#1580000
0!
0O
#1585000
1!
1O
1W!
0Y!
0X!
0Z!
0J
0L
0K
1M
05!
0-!
1'
0)
0(
0*
1R
#1590000
0!
0O
#1595000
1!
1O
1Z!
1J
1V
1*
0U
0R
1Z
0X
0W
#1600000
0!
0O
#1605000
1!
1O
1P!
0Q!
0R!
0W!
0Z!
0J
0M
0F
0G
1H
12!
1]
01!
0V
1,
0-
0.
0'
0*
1W
1R
0W
#1610000
0!
0O
#1615000
1!
1O
1Z!
1J
1.!
1*
1T
0R
#1620000
0!
0O
#1625000
1!
1O
1Y!
0Z!
0J
1K
15!
0.!
1)
0*
1R
#1630000
0!
0O
#1635000
1!
1O
1Z!
1J
1.!
1*
0T
1S
0R
#1640000
0!
0O
#1645000
1!
1O
0Y!
1X!
0Z!
0J
1L
0K
05!
1-!
0.!
0)
1(
0*
1R
#1650000
0!
0O
#1655000
1!
1O
1Z!
1J
1.!
1*
1T
0R
#1660000
0!
0O
#1665000
1!
1O
1Y!
0Z!
0J
1K
15!
0.!
1)
0*
1R
#1670000
0!
0O
#1675000
1!
1O
1Z!
1J
1.!
1*
1U
0T
0S
0R
#1680000
0!
0O
#1685000
1!
1O
1W!
0Y!
0X!
0Z!
0J
0L
0K
1M
10!
05!
0-!
0.!
1'
0)
0(
0*
1R
00!
#1690000
0!
0O
#1695000
1!
1O
1Z!
1J
1.!
1V
1*
0U
0R
1W
#1700000
0!
0O
#1705000
1!
1O
1R!
0W!
0Z!
0J
0M
1F
0.!
1v
1^
0V
1.
0'
0*
0W
1R
0v
0^
1W
#1710000
0!
0O
#1715000
1!
1O
1Z!
1J
1*
1T
0R
#1720000
0!
0O
#1725000
1!
1O
1Y!
0Z!
0J
1K
15!
1)
0*
1R
#1730000
0!
0O
#1735000
1!
1O
1Z!
1J
1*
0T
1S
0R
#1740000
0!
0O
#1745000
1!
1O
0Y!
1X!
0Z!
0J
1L
0K
05!
1-!
0)
1(
0*
1R
#1750000
0!
0O
#1755000
1!
1O
1Z!
1J
1*
1T
0R
#1760000
0!
0O
#1765000
1!
1O
1Y!
0Z!
0J
1K
15!
1)
0*
1R
#1770000
0!
0O
#1775000
1!
1O
1Z!
1J
1*
1U
0T
0S
0R
#1780000
0!
0O
#1785000
1!
1O
1W!
0Y!
0X!
0Z!
0J
0L
0K
1M
05!
0-!
1'
0)
0(
0*
1R
#1790000
0!
0O
#1795000
1!
1O
1Z!
1J
1V
1*
0U
0R
1v
1^
0W
0Z
#1800000
0!
0O
#1805000
1!
1O
1N!
0P!
0R!
0W!
0Z!
0J
0M
0F
0H
1B
1&!
1$!
1g
1`
16!
02!
0]
0Y
0v
0^
0V
12
0,
0.
0'
0*
0j
1_
0P
1W
1R
0W
#1810000
0!
0O
#1815000
1!
1O
1Z!
1J
1.!
1*
1T
0R
#1820000
0!
0O
#1825000
1!
1O
1Y!
0Z!
0J
1K
15!
0.!
1)
0*
1R
17!
#1830000
0!
0O
#1835000
1!
1O
1Z!
1J
1.!
1*
0T
1S
0R
#1840000
0!
0O
#1845000
1!
1O
0Y!
1X!
0Z!
0J
1L
0K
05!
1-!
0.!
0)
1(
0*
1R
07!
#1850000
0!
0O
#1855000
1!
1O
1Z!
1J
1.!
1*
1T
0R
#1860000
0!
0O
#1865000
1!
1O
1Y!
0Z!
0J
1K
15!
0.!
1)
0*
1R
17!
#1870000
0!
0O
#1875000
1!
1O
1Z!
1J
1.!
1*
1U
0T
0S
0R
#1880000
0!
0O
#1885000
1!
1O
1W!
0Y!
0X!
0Z!
0J
0L
0K
1M
10!
05!
0-!
0.!
1'
0)
0(
0*
1R
18!
07!
00!
08!
#1890000
0!
0O
#1895000
1!
1O
1Z!
1J
1.!
1V
1*
0U
0R
1W
#1900000
0!
0O
#1905000
1!
1O
1R!
0W!
0Z!
0J
0M
1F
0.!
0V
1.
0'
0*
1X
0W
1R
0X
1W
#1910000
0!
0O
#1915000
1!
1O
1Z!
1J
1*
1T
0R
#1920000
0!
0O
#1925000
1!
1O
1Y!
0Z!
0J
1K
15!
1)
0*
1R
17!
#1930000
0!
0O
#1935000
1!
1O
1Z!
1J
1*
0T
1S
0R
#1940000
0!
0O
#1945000
1!
1O
0Y!
1X!
0Z!
0J
1L
0K
05!
1-!
0)
1(
0*
1R
07!
#1950000
0!
0O
#1955000
1!
1O
1Z!
1J
1*
1T
0R
#1960000
0!
0O
#1965000
1!
1O
1Y!
0Z!
0J
1K
15!
1)
0*
1R
17!
#1970000
0!
0O
