大二下/數位系統技術/add_sub_4/simulation/qsim/add_sub_4.msim.vcd
$comment
	File created using the following command:
		vcd file add_sub_4.msim.vcd -direction
$end
$date
	Wed Mar 13 10:26:16 2024
$end
$version
	ModelSim Version 2020.1
$end
$timescale
	1ps
$end

$scope module addsub_4_vlg_vec_tst $end
$var reg 4 ! a [3:0] $end
$var reg 4 " b [3:0] $end
$var reg 1 # sel $end
$var wire 1 $ cout $end
$var wire 1 % sum [3] $end
$var wire 1 & sum [2] $end
$var wire 1 ' sum [1] $end
$var wire 1 ( sum [0] $end

$scope module i1 $end
$var wire 1 ) gnd $end
$var wire 1 * vcc $end
$var wire 1 + unknown $end
$var tri1 1 , devclrn $end
$var tri1 1 - devpor $end
$var tri1 1 . devoe $end
$var wire 1 / cout~output_o $end
$var wire 1 0 sum[0]~output_o $end
$var wire 1 1 sum[1]~output_o $end
$var wire 1 2 sum[2]~output_o $end
$var wire 1 3 sum[3]~output_o $end
$var wire 1 4 b[3]~input_o $end
$var wire 1 5 sel~input_o $end
$var wire 1 6 b[2]~input_o $end
$var wire 1 7 a[2]~input_o $end
$var wire 1 8 b[1]~input_o $end
$var wire 1 9 a[1]~input_o $end
$var wire 1 : a[0]~input_o $end
$var wire 1 ; b[0]~input_o $end
$var wire 1 < m0|m0|cout~0_combout $end
$var wire 1 = m0|m1|cout~0_combout $end
$var wire 1 > m0|m2|cout~0_combout $end
$var wire 1 ? a[3]~input_o $end
$var wire 1 @ cout~0_combout $end
$var wire 1 A m0|m0|m1|sum~0_combout $end
$var wire 1 B m0|m1|m1|sum~combout $end
$var wire 1 C m0|m2|m1|sum~0_combout $end
$var wire 1 D m0|sum[3]~0_combout $end
$upscope $end
$upscope $end
$enddefinitions $end
#0
$dumpvars
b0 !
b0 "
0#
0$
0(
0'
0&
0%
0)
1*
x+
1,
1-
1.
0/
00
01
02
03
04
05
06
07
08
09
0:
0;
0<
0=
0>
0?
0@
0A
0B
0C
0D
$end
#10000
1#
15
1<
1D
1C
1B
11
12
13
1=
1%
1&
1'
0B
01
1>
0'
0C
02
0&
0D
03
0%
#20000
b100 !
b101 !
b10 "
0#
05
17
1:
18
0<
1D
1@
1A
10
1/
13
0=
1%
1$
1(
1B
11
0>
1'
1C
12
1&
0D
0@
0/
03
0%
0$
#30000
1#
15
1>
1<
1D
0C
0B
01
02
13
1%
0&
0'
0D
1B
11
03
0%
1'
#40000
b111 !
b110 "
b11 !
b10 !
0#
05
07
19
0:
16
0>
1=
0<
1D
1C
1@
0A
00
1/
12
13
1>
1%
1&
1$
0(
0D
0@
0C
0B
01
02
0/
03
0%
0$
0&
0'
1D
1@
1/
13
1%
1$
#50000
1#
15
0>
0=
1<
0D
1C
1B
0@
0/
11
12
03
1=
0%
1&
1'
0$
1D
0C
0B
01
02
13
1%
0&
0'
1C
12
1&
#60000
b1010 !
b111 "
b1110 !
0#
05
1?
17
1;
1>
0<
1B
1A
10
11
1'
1(
0D
0B
01
03
0%
0'
#70000
1#
15
0=
1D
0C
1B
11
02
13
0>
1%
0&
1'
1C
12
1&
0D
1@
1/
03
0%
1$
#80000
b1111 "
b1100 !
b1011 "
b1101 !
0#
05
14
06
09
1:
1<
0A
00
1=
0(
0B
01
1>
0'
0C
02
0&
1D
0@
0/
13
1%
0$
#90000
1#
15
0=
0D
1C
1B
11
12
03
0%
1&
1'
0C
02
0&
