大二下/數位系統技術/UART_RX/simulation/qsim/UART_RX.msim.vcd
$comment
	File created using the following command:
		vcd file UART_RX.msim.vcd -direction
$end
$date
	Wed May 29 11:28:55 2024
$end
$version
	ModelSim Version 2020.1
$end
$timescale
	1ps
$end

$scope module UART_RX_vlg_vec_tst $end
$var reg 1 ! i_RX_Bit $end
$var reg 1 " i_clk $end
$var reg 1 # i_rst $end
$var wire 1 $ o_RX_Byte [7] $end
$var wire 1 % o_RX_Byte [6] $end
$var wire 1 & o_RX_Byte [5] $end
$var wire 1 ' o_RX_Byte [4] $end
$var wire 1 ( o_RX_Byte [3] $end
$var wire 1 ) o_RX_Byte [2] $end
$var wire 1 * o_RX_Byte [1] $end
$var wire 1 + o_RX_Byte [0] $end

$scope module i1 $end
$var wire 1 , gnd $end
$var wire 1 - vcc $end
$var wire 1 . unknown $end
$var tri1 1 / devclrn $end
$var tri1 1 0 devpor $end
$var tri1 1 1 devoe $end
$var wire 1 2 o_RX_Byte[0]~output_o $end
$var wire 1 3 o_RX_Byte[1]~output_o $end
$var wire 1 4 o_RX_Byte[2]~output_o $end
$var wire 1 5 o_RX_Byte[3]~output_o $end
$var wire 1 6 o_RX_Byte[4]~output_o $end
$var wire 1 7 o_RX_Byte[5]~output_o $end
$var wire 1 8 o_RX_Byte[6]~output_o $end
$var wire 1 9 o_RX_Byte[7]~output_o $end
$var wire 1 : i_clk~input_o $end
$var wire 1 ; i_RX_Bit~input_o $end
$var wire 1 < Selector0~0_combout $end
$var wire 1 = i_rst~input_o $end
$var wire 1 > r_SM_Main.RX_STOP_ST~q $end
$var wire 1 ? Selector3~0_combout $end
$var wire 1 @ r_SM_Main.RX_START_ST~q $end
$var wire 1 A Selector0~1_combout $end
$var wire 1 B Selector4~0_combout $end
$var wire 1 C Selector4~1_combout $end
$var wire 1 D r_SM_Main.RX_DATA_ST~q $end
$var wire 1 E Selector1~0_combout $end
$var wire 1 F Selector1~1_combout $end
$var wire 1 G Decoder0~7_combout $end
$var wire 1 H Selector2~0_combout $end
$var wire 1 I Decoder0~0_combout $end
$var wire 1 J r_RX_Byte[0]~0_combout $end
$var wire 1 K Decoder0~1_combout $end
$var wire 1 L r_RX_Byte[1]~1_combout $end
$var wire 1 M Decoder0~2_combout $end
$var wire 1 N r_RX_Byte[2]~2_combout $end
$var wire 1 O Decoder0~3_combout $end
$var wire 1 P r_RX_Byte[3]~3_combout $end
$var wire 1 Q Decoder0~4_combout $end
$var wire 1 R r_RX_Byte[4]~4_combout $end
$var wire 1 S Decoder0~5_combout $end
$var wire 1 T r_RX_Byte[5]~5_combout $end
$var wire 1 U Decoder0~6_combout $end
$var wire 1 V r_RX_Byte[6]~6_combout $end
$var wire 1 W r_RX_Byte[7]~7_combout $end
$var wire 1 X r_RX_Byte [7] $end
$var wire 1 Y r_RX_Byte [6] $end
$var wire 1 Z r_RX_Byte [5] $end
$var wire 1 [ r_RX_Byte [4] $end
$var wire 1 \ r_RX_Byte [3] $end
$var wire 1 ] r_RX_Byte [2] $end
$var wire 1 ^ r_RX_Byte [1] $end
$var wire 1 _ r_RX_Byte [0] $end
$var wire 1 ` r_Byte_Idx [2] $end
$var wire 1 a r_Byte_Idx [1] $end
$var wire 1 b r_Byte_Idx [0] $end
$upscope $end
$upscope $end
$enddefinitions $end
#0
$dumpvars
1!
0"
1#
0+
0*
0)
0(
0'
0&
0%
0$
0,
1-
x.
1/
10
11
02
03
04
05
06
07
08
09
0:
1;
0<
1=
0>
0?
0@
0A
0B
0C
0D
0E
0F
0G
0H
0I
0J
0K
0L
0M
0N
0O
0P
0Q
0R
0S
0T
0U
0V
0W
0_
0^
0]
0\
0[
0Z
0Y
0X
0b
0a
0`
$end
#5000
1"
1:
#10000
0"
0:
#15000
1"
1:
#20000
0#
0"
0=
0:
#25000
1"
1:
#30000
0"
0:
#35000
1"
1:
#40000
0!
0"
0;
0:
1C
1?
#45000
1"
1:
1D
1@
1I
1B
1H
0C
1C
#50000
1!
0"
1;
0:
1J
#55000
1"
1:
1b
1_
12
1K
0I
1+
0H
1F
1L
#60000
0!
0"
0;
0:
0L
#65000
1"
1:
0b
1a
1M
0K
1H
#70000
1!
0"
1;
0:
1N
#75000
1"
1:
1b
1]
14
1O
0M
1<
1)
0H
0F
1P
1A
#80000
0"
0:
#85000
1"
1:
0b
0a
1`
1\
15
1Q
0O
0<
1E
1(
1H
1R
#90000
0"
0:
#95000
1"
1:
1b
1[
16
1S
0Q
1'
0H
1F
1T
#100000
0"
0:
#105000
1"
1:
0b
1a
1Z
17
1U
0S
1&
1H
1V
#110000
0!
0"
0;
0:
0V
#115000
1"
1:
1b
0U
0B
0H
1G
0C
1H
#120000
1!
0"
1;
0:
1W
#125000
1"
1:
0D
1>
1X
19
1$
0G
0?
#130000
0"
0:
#135000
1"
1:
0@
0>
0E
0A
0H
0F
#140000
0!
0"
0;
0:
1C
1?
#145000
1"
1:
0b
0a
1D
0`
1@
1I
1B
1H
0C
0J
1C
#150000
0"
0:
#155000
1"
1:
1b
0_
02
1K
0I
0+
0H
1F
#160000
1!
0"
1;
0:
1L
#165000
1"
1:
0b
1a
1^
13
1M
0K
1*
1H
#170000
0!
0"
0;
0:
0N
#175000
1"
1:
1b
0]
04
1O
0M
1<
0)
0H
0F
0P
1A
#180000
0"
0:
#185000
1"
1:
0b
0a
1`
0\
05
1Q
0O
0<
1E
0(
1H
0R
#190000
1!
0"
1;
0:
1R
#195000
1"
1:
1b
1S
0Q
0H
1F
#200000
0"
0:
#205000
1"
1:
0b
1a
1U
0S
1H
1V
#210000
0"
0:
#215000
1"
1:
1b
1Y
18
0U
0B
1%
0H
1G
0C
1H
#220000
0!
0"
0;
0:
0W
#225000
1"
1:
0D
1>
0X
09
0$
0G
0?
#230000
1!
0"
1;
0:
#235000
1"
1:
0@
0>
0E
0A
0H
0F
#240000
0!
0"
0;
0:
1C
1?
#245000
1"
1:
0b
0a
1D
0`
1@
1I
1B
1H
0C
1C
#250000
0"
0:
#255000
1"
1:
1b
1K
0I
0H
1F
0L
#260000
0"
0:
#265000
1"
1:
0b
1a
0^
03
1M
0K
0*
1H
#270000
0"
0:
#275000
1"
1:
1b
1O
0M
1<
0H
0F
1A
#280000
0"
0:
#285000
1"
1:
0b
0a
1`
1Q
0O
0<
1E
1H
0R
#290000
0"
0:
#295000
1"
1:
1b
0[
06
1S
0Q
0'
0H
1F
0T
